Layer (type)                 Output Shape              Param #   
=================================================================
embedding_1 (Embedding)      (None, 45, 300)           30000000  
_________________________________________________________________
conv1d_1 (Conv1D)            (None, 44, 100)           60100     
_________________________________________________________________
conv1d_2 (Conv1D)            (None, 43, 100)           20100     
_________________________________________________________________
global_max_pooling1d_1 (Glob (None, 100)               0         
_________________________________________________________________
dense_1 (Dense)              (None, 256)               25856     
_________________________________________________________________
dense_2 (Dense)              (None, 1)                 257       
=================================================================
Total params: 30,106,313
Trainable params: 30,106,313
Non-trainable params: 0
_________________________________________________________________
None
Train on 1564817 samples, validate on 31936 samples
Epoch 1/10
 - 11310s - loss: 0.4097 - acc: 0.8126 - val_loss: 0.3971 - val_acc: 0.8210
Epoch 2/10
 - 11259s - loss: 0.3646 - acc: 0.8383 - val_loss: 0.3904 - val_acc: 0.8244
Epoch 3/10
 - 11371s - loss: 0.3384 - acc: 0.8524 - val_loss: 0.3886 - val_acc: 0.8240
Epoch 4/10
 - 11567s - loss: 0.3155 - acc: 0.8642 - val_loss: 0.3955 - val_acc: 0.8257
Epoch 5/10
 - 11706s - loss: 0.2944 - acc: 0.8745 - val_loss: 0.4119 - val_acc: 0.8197
Epoch 6/10
 - 11672s - loss: 0.2752 - acc: 0.8837 - val_loss: 0.4281 - val_acc: 0.8170
Epoch 7/10
 - 11637s - loss: 0.2576 - acc: 0.8918 - val_loss: 0.4504 - val_acc: 0.8121
Epoch 8/10
 - 11550s - loss: 0.2418 - acc: 0.8994 - val_loss: 0.4871 - val_acc: 0.8123
Epoch 9/10
 - 11495s - loss: 0.2270 - acc: 0.9060 - val_loss: 0.5329 - val_acc: 0.8073
Epoch 10/10
 - 11556s - loss: 0.2136 - acc: 0.9120 - val_loss: 0.5299 - val_acc: 0.8036
